﻿[
    {
        "_id": "co-01",
        "_parentId": "course",
        "_type": "page",
        "_graphic": {
            "alt": "",
            "src": "course/en/images/00_contentObjects/landing_1.jpg"
        },
        "_classes": "zh_cn",
        "displayTitle": "はじめに",
        "title": "はじめに",
        "body": "オンライン、店舗、モバイルアプリでアクションを促す方法についてご覧ください。",
        "linkText":"見る",
        "height":"570",
        "durationLabel": "所要時間: ",
        "duration": "2分",
        "_pageLevelProgress": {
            "_isEnabled": true
        }
    },
    {
        "_id": "co-02",
        "_parentId": "course",
        "_type": "page",
        "_graphic": {
            "alt": "",
            "src": "course/en/images/00_contentObjects/landing_2.png"
        },
        "_classes": "zh_cn",
        "displayTitle": "スタートガイド",
        "title": "スタートガイド",
        "body": "キャンペーンを計画するときに考慮すべき事項についてご覧ください。",
        "linkText":"見る",
        "height":"570",
        "durationLabel": "所要時間: ",
        "duration": "3分",
        "_pageLevelProgress": {
            "_isEnabled": true
        }
    },
    {
        "_id": "co-03",
        "_parentId": "course",
        "_type": "page",
        "_graphic": {
            "alt": "",
            "src": "course/en/images/00_contentObjects/landing_3.png"
        },
        "_classes": "zh_cn",
        "displayTitle": "広告の購入タイプの概要",
        "title": "広告の購入タイプの概要",
        "body": "広告オークションの仕組みとTRP購入に関する詳細をご覧ください。",
        "linkText":"見る",
        "height":"570",
        "durationLabel": "所要時間: ",
        "duration": "5分",
        "_pageLevelProgress": {
            "_isEnabled": true
        }
    },
    {
        "_id": "co-04",
        "_parentId": "course",
        "_type": "page",
        "_graphic": {
            "alt": "",
            "src": "course/en/images/00_contentObjects/landing_4.png"
        },
        "_classes": "zh_cn",
        "displayTitle": "適切な目的を選択する",
        "title": "適切な目的を選択する",
        "body": "ビジネス目標をFacebookの広告の目的に合わせて解釈する方法を説明します。",
         "linkText":"見る",
        "height":"570",
        "durationLabel": "所要時間: ",
        "duration": "2分",
        "_pageLevelProgress": {
            "_isEnabled": true
        }
    },
    {
        "_id": "co-05",
        "_parentId": "course",
        "_type": "page",
        "_graphic": {
            "alt": "",
            "src": "course/en/images/00_contentObjects/landing_5.png"
        }, 
        "_classes": "zh_cn",
        "displayTitle": "適切なターゲット設定を行う",
        "title": "適切なターゲット設定を行う",
        "body": "Facebookのターゲット設定ソリューションの威力と正確性をご覧ください。",
        "linkText":"見る",
        "height":"570",
        "durationLabel": "所要時間: ",
        "duration": "5分",
        "_pageLevelProgress": {
            "_isEnabled": true
        }
    },
    {
        "_id": "co-06",
        "_parentId": "course",
        "_type": "page",
        "_graphic": {
            "alt": "",
            "src": "course/en/images/00_contentObjects/landing_6.png"
        },
        "_classes": "zh_cn",
        "displayTitle": "配置、フォーマット、広告素材を選択する",
        "title": "配置、フォーマット、広告素材を選択する",
        "body": "目的に応じた広告素材のベストプラクティスについて説明します。",
                "linkText":"見る",
        "height":"570",
        "durationLabel": "所要時間: ",
        "duration": "4分",
        "_pageLevelProgress": {
            "_isEnabled": true
        }
    },
    {
        "_id": "co-07",
        "_parentId": "course",
        "_type": "page",
        "_graphic": {
            "alt": "",
            "src": "course/en/images/00_contentObjects/landing_7.png"
        },
        "_classes": "zh_cn",
        "displayTitle": "キャンペーンのパフォーマンスを測定する",
        "title": "キャンペーンのパフォーマンスを測定する",
        "body": "Facebookの測定ツールについてご覧いただき、ビジネス目標とKPIを考慮して最適なものを選ぶヒントをお伝えします。",
                "linkText":"見る",
        "height":"570",
        "durationLabel": "所要時間: ",
        "duration": "5分",
        "_pageLevelProgress": {
            "_isEnabled": true
        }
    },
    {
        "_id": "co-08",
        "_parentId": "course",
        "_type": "page",
        "_graphic": {
            "alt": "",
            "src": "course/en/images/00_contentObjects/landing_8.png"
        },
        "_classes": "zh_cn",
        "displayTitle": "コース内容の復習",
        "title": "コース内容の復習",
        "body": "最後に、このコースで学んだ内容を振り返ってみましょう。",
                "linkText":"見る",
        "height":"570",
        "durationLabel": "所要時間: ",
        "duration": "4分",
        "_pageLevelProgress": {
            "_isEnabled": true
        }
    }
]